[
  {
    "line": 1,
    "elements": [
      {
        "line": 3,
        "name": "Test login button enabled",
        "description": "",
        "id": "test-open-mave-app-heroku-url;test-login-button-enabled",
        "type": "scenario",
        "keyword": "Scenario",
        "steps": [
          {
            "result": {
              "duration": 8140472822,
              "status": "passed"
            },
            "line": 4,
            "name": "Open Chrome browser",
            "match": {
              "location": "CucumberTest.open_Chrome_browser()"
            },
            "keyword": "Given "
          },
          {
            "result": {
              "duration": 1236400795,
              "status": "passed"
            },
            "line": 5,
            "name": "maven-app-heroku is loaded",
            "match": {
              "location": "CucumberTest.maven_app_heroku_is_loaded()"
            },
            "keyword": "When "
          },
          {
            "result": {
              "duration": 913420145,
              "status": "passed"
            },
            "line": 6,
            "name": "login button enabled",
            "match": {
              "location": "CucumberTest.login_button_enabled()"
            },
            "keyword": "Then "
          }
        ]
      },
      {
        "line": 8,
        "name": "Test play button enabled",
        "description": "",
        "id": "test-open-mave-app-heroku-url;test-play-button-enabled",
        "type": "scenario",
        "keyword": "Scenario",
        "steps": [
          {
            "result": {
              "duration": 6954375253,
              "status": "passed"
            },
            "line": 9,
            "name": "Open Chrome browser",
            "match": {
              "location": "CucumberTest.open_Chrome_browser()"
            },
            "keyword": "Given "
          },
          {
            "result": {
              "duration": 1216265184,
              "status": "passed"
            },
            "line": 10,
            "name": "maven-app-heroku is loaded",
            "match": {
              "location": "CucumberTest.maven_app_heroku_is_loaded()"
            },
            "keyword": "When "
          },
          {
            "result": {
              "duration": 886257093,
              "status": "passed"
            },
            "line": 11,
            "name": "play button enabled",
            "match": {
              "location": "CucumberTest.play_button_enabled()"
            },
            "keyword": "Then "
          }
        ]
      },
      {
        "line": 13,
        "name": "Test refresh button enabled",
        "description": "",
        "id": "test-open-mave-app-heroku-url;test-refresh-button-enabled",
        "type": "scenario",
        "keyword": "Scenario",
        "steps": [
          {
            "result": {
              "duration": 7083176038,
              "status": "passed"
            },
            "line": 14,
            "name": "Open Chrome browser",
            "match": {
              "location": "CucumberTest.open_Chrome_browser()"
            },
            "keyword": "Given "
          },
          {
            "result": {
              "duration": 1233080070,
              "status": "passed"
            },
            "line": 15,
            "name": "maven-app-heroku is loaded",
            "match": {
              "location": "CucumberTest.maven_app_heroku_is_loaded()"
            },
            "keyword": "When "
          },
          {
            "result": {
              "duration": 919197381,
              "status": "passed"
            },
            "line": 16,
            "name": "refresh button enabled",
            "match": {
              "location": "CucumberTest.refresh_button_enabled()"
            },
            "keyword": "Then "
          }
        ]
      },
      {
        "line": 18,
        "name": "Test start button enabled",
        "description": "",
        "id": "test-open-mave-app-heroku-url;test-start-button-enabled",
        "type": "scenario",
        "keyword": "Scenario",
        "steps": [
          {
            "result": {
              "duration": 7015748248,
              "status": "passed"
            },
            "line": 19,
            "name": "Open Chrome browser",
            "match": {
              "location": "CucumberTest.open_Chrome_browser()"
            },
            "keyword": "Given "
          },
          {
            "result": {
              "duration": 1226340503,
              "status": "passed"
            },
            "line": 20,
            "name": "maven-app-heroku is loaded",
            "match": {
              "location": "CucumberTest.maven_app_heroku_is_loaded()"
            },
            "keyword": "When "
          },
          {
            "result": {
              "duration": 902762300,
              "status": "passed"
            },
            "line": 21,
            "name": "start button enabled",
            "match": {
              "location": "CucumberTest.start_button_enabled()"
            },
            "keyword": "Then "
          }
        ]
      },
      {
        "line": 23,
        "name": "Test stop button enabled",
        "description": "",
        "id": "test-open-mave-app-heroku-url;test-stop-button-enabled",
        "type": "scenario",
        "keyword": "Scenario",
        "steps": [
          {
            "result": {
              "duration": 6764634611,
              "status": "passed"
            },
            "line": 24,
            "name": "Open Chrome browser",
            "match": {
              "location": "CucumberTest.open_Chrome_browser()"
            },
            "keyword": "Given "
          },
          {
            "result": {
              "duration": 1222606383,
              "status": "passed"
            },
            "line": 25,
            "name": "maven-app-heroku is loaded",
            "match": {
              "location": "CucumberTest.maven_app_heroku_is_loaded()"
            },
            "keyword": "When "
          },
          {
            "result": {
              "duration": 889272263,
              "status": "passed"
            },
            "line": 26,
            "name": "stop button enabled",
            "match": {
              "location": "CucumberTest.stop_button_enabled()"
            },
            "keyword": "Then "
          }
        ]
      }
    ],
    "name": "Test open mave-app-heroku URL",
    "description": "",
    "id": "test-open-mave-app-heroku-url",
    "keyword": "Feature",
    "uri": "myApp.feature"
  }
]