D:\Bitbucket Repo-Clone\dev-repo\maven-app-heroku\src\test\java\uts\wsd\test\CucumberTest.java
D:\Bitbucket Repo-Clone\dev-repo\maven-app-heroku\src\test\java\uts\wsd\test\RunTest.java
D:\Bitbucket Repo-Clone\dev-repo\maven-app-heroku\src\test\java\uts\wsd\test\MavenJUnitTest.java
D:\Bitbucket Repo-Clone\dev-repo\maven-app-heroku\src\test\java\uts\wsd\test\JUnitRunner.java
